{
  "banner_second":{
    "title": "<h2>404</h2>",
    "blurb": "<p>Page not found</p>",
    "button": "<a href='/templates/index.php' class='btn-lightblue'>Go back to landing page</a>",
    "image_url" : "/templates/dist/images/vision/banner_second/banner.jpg",
    "alt" : "banner second"
  }
}