{
  "hero-slider":{
    "title": "<h2>Index page</h2>",
    "blurb": "<p>List of pages</p>",
    "button": "",
    "image_url" : "/templates/dist/images/vision/banner_second/banner.jpg",
    "alt" : "banner second"
  },
  "list-of-pages": {
    "title": "List of pages",
    "pages":[
      {
        "name": "Home -- (Template # 1)",
        "file": "index",
        "phase": 3,
        "class": "dev"
      }
    ]
  }
}