<?xml version="1.0" encoding="utf-8"?>
<!-- Generator: Adobe Illustrator 17.0.0, SVG Export Plug-In . SVG Version: 6.00 Build 0)  -->
<!DOCTYPE svg PUBLIC "-//W3C//DTD SVG 1.1//EN" "http://www.w3.org/Graphics/SVG/1.1/DTD/svg11.dtd">
<svg version="1.1" id="Layer_1" xmlns="http://www.w3.org/2000/svg" xmlns:xlink="http://www.w3.org/1999/xlink" x="0px" y="0px"
	 width="38.578px" height="34.282px" viewBox="0 0 38.578 34.282" enable-background="new 0 0 38.578 34.282" xml:space="preserve">
<g>
	<defs>
		<rect id="SVGID_1_" y="0" width="38.578" height="34.282"/>
	</defs>
	<clipPath id="SVGID_2_">
		<use xlink:href="#SVGID_1_"  overflow="visible"/>
	</clipPath>
	<path clip-path="url(#SVGID_2_)" fill="#FFFFFF" d="M6.904,11.522L6.904,11.522c-0.984,0-1.909-0.384-2.605-1.079
		C3.603,9.747,3.219,8.822,3.22,7.837V7.188c0-0.985,0.383-1.91,1.079-2.605C4.995,3.887,5.92,3.504,6.903,3.504h0.001
		c2.031,0,3.684,1.653,3.684,3.684v0.65C10.588,9.87,8.935,11.522,6.904,11.522 M6.903,4.504c-0.716,0-1.39,0.279-1.896,0.786
		C4.5,5.796,4.22,6.471,4.22,7.188v0.65c0,0.717,0.279,1.391,0.786,1.897c0.506,0.508,1.181,0.787,1.898,0.787
		c1.479,0,2.684-1.204,2.684-2.684v-0.65C9.588,5.708,8.383,4.504,6.903,4.504L6.903,4.504z"/>
	<path clip-path="url(#SVGID_2_)" fill="#FFFFFF" d="M6.893,19.224c-1.723,0-3.441-0.238-5.112-0.713
		C0.714,18.208,0,17.262,0,16.199c0.001-1.482,0.947-2.791,2.353-3.258c2.934-0.973,6.166-0.972,9.102,0.001
		c1.409,0.467,2.353,1.777,2.352,3.259c0,1.062-0.715,2.008-1.737,2.298C10.368,18.983,8.628,19.224,6.893,19.224 M6.902,13.211
		c-1.435,0-2.868,0.227-4.234,0.679C1.671,14.221,1.001,15.149,1,16.2c0,0.617,0.415,1.167,1.009,1.336
		c3.219,0.915,6.573,0.915,9.745,0.014c0.637-0.182,1.053-0.732,1.053-1.349V16.2c0.001-1.05-0.668-1.978-1.665-2.308
		C9.775,13.438,8.339,13.211,6.902,13.211"/>
	<path clip-path="url(#SVGID_2_)" fill="#FFFFFF" d="M31.674,11.522L31.674,11.522c-2.031,0-3.684-1.653-3.684-3.684v-0.65
		c0-0.985,0.383-1.91,1.08-2.605c0.696-0.696,1.621-1.079,2.604-1.079h0.001c2.031,0,3.684,1.653,3.684,3.684v0.65
		C35.359,9.87,33.705,11.522,31.674,11.522 M31.674,4.504c-0.717,0-1.391,0.279-1.897,0.786C29.27,5.796,28.99,6.471,28.99,7.188
		v0.65c0,1.479,1.205,2.684,2.684,2.684c1.48,0,2.685-1.204,2.685-2.684v-0.65C34.359,5.708,33.154,4.504,31.674,4.504L31.674,4.504
		z"/>
	<path clip-path="url(#SVGID_2_)" fill="#FFFFFF" d="M31.664,19.224c-1.723,0-3.441-0.238-5.112-0.713
		c-1.069-0.304-1.782-1.249-1.781-2.312c0-1.482,0.945-2.791,2.353-3.258c2.936-0.974,6.169-0.973,9.101,0.001
		c1.41,0.467,2.354,1.777,2.353,3.259c-0.001,1.063-0.716,2.008-1.737,2.298C35.139,18.982,33.399,19.224,31.664,19.224
		 M31.673,13.211c-1.435,0-2.869,0.227-4.234,0.679c-0.998,0.331-1.668,1.259-1.668,2.309c-0.001,0.618,0.414,1.168,1.008,1.337
		c3.218,0.915,6.573,0.915,9.745,0.014c0.638-0.182,1.053-0.732,1.054-1.35c0.001-1.05-0.669-1.978-1.665-2.308
		C34.546,13.438,33.109,13.211,31.673,13.211"/>
	<path clip-path="url(#SVGID_2_)" fill="#FFFFFF" d="M19.29,26.58h-0.001c-2.031,0-3.684-1.653-3.684-3.684v-0.65
		c0-2.032,1.654-3.684,3.685-3.684s3.684,1.653,3.684,3.684l-0.001,0.651c0,0.984-0.383,1.909-1.079,2.604
		C21.198,26.197,20.273,26.58,19.29,26.58 M19.29,19.562c-1.48,0-2.685,1.204-2.685,2.684v0.65c0,1.48,1.205,2.684,2.684,2.684
		h0.001c0.716,0,1.39-0.279,1.896-0.786c0.507-0.506,0.787-1.181,0.787-1.898l0.001-0.651C21.974,20.767,20.769,19.562,19.29,19.562
		"/>
	<path clip-path="url(#SVGID_2_)" fill="#FFFFFF" d="M19.278,34.282c-1.723,0-3.441-0.239-5.111-0.713
		c-1.068-0.303-1.782-1.249-1.782-2.312c0.001-1.483,0.947-2.792,2.354-3.259c2.935-0.973,6.166-0.972,9.101,0.001
		c1.409,0.468,2.353,1.777,2.353,3.259v0.001c-0.001,1.063-0.716,2.008-1.738,2.298C22.753,34.04,21.013,34.282,19.278,34.282
		 M19.287,28.269c-1.435,0-2.868,0.226-4.233,0.679c-0.997,0.33-1.668,1.258-1.669,2.309c0,0.618,0.415,1.168,1.009,1.337
		c3.217,0.914,6.573,0.915,9.745,0.013c0.637-0.181,1.053-0.731,1.054-1.349c0-1.051-0.669-1.978-1.665-2.308
		C22.16,28.496,20.724,28.269,19.287,28.269"/>
	<path clip-path="url(#SVGID_2_)" fill="#FFFFFF" d="M11.068,30.192c-3.656-2.154-6.373-5.733-7.454-9.817l0.967-0.256
		c1.014,3.832,3.563,7.19,6.995,9.212L11.068,30.192z"/>
	<path clip-path="url(#SVGID_2_)" fill="#FFFFFF" d="M27.579,30.151l-0.512-0.859c3.408-2.032,5.86-5.25,6.901-9.062l0.965,0.264
		C33.822,24.557,31.211,27.986,27.579,30.151"/>
	<path clip-path="url(#SVGID_2_)" fill="#FFFFFF" d="M10.542,3.795L9.964,2.98C12.712,1.03,15.951,0,19.333,0
		c3.343,0,6.553,1.009,9.281,2.918l-0.572,0.819C25.481,1.947,22.47,1,19.333,1C16.16,1,13.12,1.966,10.542,3.795"/>
</g>
</svg>
