<?xml version="1.0" encoding="utf-8"?>
<!-- Generator: Adobe Illustrator 22.0.1, SVG Export Plug-In . SVG Version: 6.00 Build 0)  -->
<svg version="1.1" id="Layer_1" xmlns="http://www.w3.org/2000/svg" xmlns:xlink="http://www.w3.org/1999/xlink" x="0px" y="0px"
	 viewBox="0 0 64 64" style="enable-background:new 0 0 64 64;" xml:space="preserve">
<style type="text/css">
	.st0{fill:#338DBB;}
	.st1{fill:#FFFFFF;}
</style>
<g>
	<circle class="st0" cx="32" cy="32" r="32"/>
</g>
<g>
	<polygon class="st1" points="24.63,24.01 26.03,25.44 31,20.61 31,35.5 33,35.5 33,20.61 37.97,25.44 39.37,24.01 32,16.84 	"/>
	<path class="st1" d="M48.33,25.31c-0.55,0-1,0.45-1,1v14.84H16.67V26.31c0-0.55-0.45-1-1-1c-0.55,0-1,0.45-1,1v15.84
		c0,0.55,0.45,1,1,1h32.65c0.55,0,1-0.45,1-1V26.31C49.33,25.76,48.88,25.31,48.33,25.31z"/>
</g>
</svg>
