<?xml version="1.0" encoding="utf-8"?>
<!-- Generator: Adobe Illustrator 22.0.1, SVG Export Plug-In . SVG Version: 6.00 Build 0)  -->
<svg version="1.1" id="Layer_1" xmlns="http://www.w3.org/2000/svg" xmlns:xlink="http://www.w3.org/1999/xlink" x="0px" y="0px"
	 viewBox="0 0 64 64" style="enable-background:new 0 0 64 64;" xml:space="preserve">
<style type="text/css">
	.st0{fill:#338DBB;}
	.st1{fill:#FFFFFF;}
</style>
<g>
	<circle class="st0" cx="32" cy="32" r="32"/>
</g>
<g>
	<g>
		<path class="st1" d="M40.87,51.23H23.53c-1.28,0-2.31-1.04-2.31-2.31V15.08c0-1.27,1.04-2.31,2.31-2.31h17.34
			c1.27,0,2.31,1.04,2.31,2.31v33.84C43.18,50.2,42.14,51.23,40.87,51.23z M23.53,14.07c-0.56,0-1.01,0.45-1.01,1.01v33.84
			c0,0.56,0.45,1.01,1.01,1.01h17.34c0.56,0,1.01-0.45,1.01-1.01V15.08c0-0.56-0.45-1.01-1.01-1.01H23.53z"/>
	</g>
	<g>
		<rect x="14.05" y="38" class="st1" width="1.3" height="3.75"/>
	</g>
	<g>
		<rect x="17.96" y="30.42" class="st1" width="1.3" height="11.33"/>
	</g>
	<g>
		<rect x="44.74" y="38" class="st1" width="1.3" height="3.75"/>
	</g>
	<g>
		<rect x="48.65" y="30.42" class="st1" width="1.3" height="11.33"/>
	</g>
	<g>
		<rect x="25.96" y="37.17" class="st1" width="1.3" height="4.58"/>
	</g>
	<g>
		<rect x="29.88" y="30.42" class="st1" width="1.3" height="11.33"/>
	</g>
	<g>
		<rect x="33.46" y="36.08" class="st1" width="1.3" height="5.67"/>
	</g>
	<g>
		<rect x="37.38" y="30.42" class="st1" width="1.3" height="11.33"/>
	</g>
	<g>
		<rect x="21.86" y="44.77" class="st1" width="20.67" height="1.3"/>
	</g>
	<g>
		<rect x="31.51" y="47.2" class="st1" width="1.38" height="1.3"/>
	</g>
	<g>
		<g>
			<rect x="30.82" y="15.2" class="st1" width="1.38" height="1.3"/>
		</g>
		<g>
			<rect x="33.58" y="15.2" class="st1" width="1.38" height="1.3"/>
		</g>
		<g>
			<rect x="29.44" y="15.2" class="st1" width="1.38" height="1.3"/>
		</g>
	</g>
</g>
</svg>
