<?xml version="1.0" encoding="utf-8"?>
<!-- Generator: Adobe Illustrator 22.0.1, SVG Export Plug-In . SVG Version: 6.00 Build 0)  -->
<svg version="1.1" id="Layer_1" xmlns="http://www.w3.org/2000/svg" xmlns:xlink="http://www.w3.org/1999/xlink" x="0px" y="0px"
	 viewBox="0 0 64 64" style="enable-background:new 0 0 64 64;" xml:space="preserve">
<style type="text/css">
	.st0{fill:#338DBB;}
	.st1{fill:#FFFFFF;}
</style>
<g>
	<circle class="st0" cx="32" cy="32" r="32"/>
</g>
<g>
	<g>
		<path class="st1" d="M33.28,46.72c-2.68,0-5.35-0.65-7.71-1.88l0.65-1.26c2.19,1.14,4.57,1.72,7.06,1.72
			c8.43,0,15.3-6.86,15.3-15.3c0-8.43-6.86-15.3-15.3-15.3c-8.43,0-15.3,6.86-15.3,15.3h-1.42c0-9.22,7.5-16.72,16.72-16.72
			C42.5,13.28,50,20.78,50,30C50,39.22,42.5,46.72,33.28,46.72z"/>
	</g>
	<g>
		<rect x="18.54" y="23.05" class="st1" width="29.49" height="1.42"/>
	</g>
	<g>
		<rect x="31.24" y="35.29" class="st1" width="16.79" height="1.42"/>
	</g>
	<g>
		<rect x="32.57" y="13.99" class="st1" width="1.42" height="32.01"/>
	</g>
	<g>
		<g>
			<path class="st1" d="M22.51,43.06c-1.89,0-3.66-0.73-5-2.07c-1.33-1.33-2.07-3.11-2.07-5c0-1.89,0.73-3.66,2.07-4.99
				c1.34-1.33,3.11-2.07,5-2.07c1.89,0,3.66,0.73,5,2.07c1.33,1.33,2.07,3.11,2.07,4.99c0,1.89-0.73,3.66-2.07,5l0,0
				C26.17,42.33,24.4,43.06,22.51,43.06z M22.51,30.35c-1.51,0-2.93,0.59-3.99,1.65c-1.07,1.07-1.65,2.48-1.65,3.99
				c0,1.51,0.59,2.93,1.65,3.99c1.07,1.07,2.48,1.65,3.99,1.65c1.51,0,2.93-0.59,3.99-1.65l0,0c1.07-1.07,1.65-2.48,1.65-3.99
				c0-1.51-0.59-2.93-1.65-3.99C25.44,30.94,24.02,30.35,22.51,30.35z"/>
		</g>
		<g>
			
				<rect x="11.36" y="42.54" transform="matrix(0.7067 -0.7075 0.7075 0.7067 -26.1239 23.4823)" class="st1" width="7.8" height="1.42"/>
		</g>
	</g>
	<g>
		<path class="st1" d="M33.28,46.72c-1.77,0-3.45-1.05-4.85-3.03l1.16-0.82c0.78,1.11,2.06,2.43,3.69,2.43
			c3.76,0,6.93-7.01,6.93-15.3c0-8.29-3.17-15.3-6.93-15.3c-3.27,0-6.2,5.37-6.81,12.5l-1.41-0.12c0.7-8.12,4.08-13.79,8.22-13.79
			c4.68,0,8.35,7.34,8.35,16.72C41.63,39.37,37.97,46.72,33.28,46.72z"/>
	</g>
</g>
</svg>
