<?xml version="1.0" encoding="utf-8"?>
<!-- Generator: Adobe Illustrator 17.0.0, SVG Export Plug-In . SVG Version: 6.00 Build 0)  -->
<!DOCTYPE svg PUBLIC "-//W3C//DTD SVG 1.1//EN" "http://www.w3.org/Graphics/SVG/1.1/DTD/svg11.dtd">
<svg version="1.1" id="Layer_1" xmlns="http://www.w3.org/2000/svg" xmlns:xlink="http://www.w3.org/1999/xlink" x="0px" y="0px"
	 width="36.537px" height="36.445px" viewBox="0 0 36.537 36.445" enable-background="new 0 0 36.537 36.445" xml:space="preserve">
<g>
	<g>
		<defs>
			<rect id="SVGID_1_" x="0" y="0" width="36.537" height="36.445"/>
		</defs>
		<clipPath id="SVGID_2_">
			<use xlink:href="#SVGID_1_"  overflow="visible"/>
		</clipPath>
		<path clip-path="url(#SVGID_2_)" fill="#FFFFFF" d="M14.379,28.765c-3.842,0-7.455-1.497-10.172-4.214
			c-5.609-5.608-5.609-14.735,0-20.344s14.735-5.609,20.344,0c2.717,2.717,4.214,6.33,4.214,10.172
			c0,3.843-1.497,7.455-4.214,10.172S18.222,28.765,14.379,28.765 M14.379,1.3c-3.351,0-6.701,1.275-9.253,3.826
			c-5.101,5.103-5.101,13.404,0,18.506c2.472,2.472,5.758,3.833,9.253,3.833c3.496,0,6.781-1.361,9.253-3.833
			s3.832-5.757,3.832-9.253c0-3.495-1.36-6.781-3.832-9.253C21.081,2.576,17.73,1.3,14.379,1.3"/>
	</g>
	<g>
		<defs>
			<rect id="SVGID_3_" x="0" y="0" width="36.537" height="36.445"/>
		</defs>
		<clipPath id="SVGID_4_">
			<use xlink:href="#SVGID_3_"  overflow="visible"/>
		</clipPath>
		<path clip-path="url(#SVGID_4_)" fill="#FFFFFF" d="M32.952,36.445l-8.816-8.815l3.585-3.585l8.816,8.815L32.952,36.445z
			 M25.975,27.63l6.977,6.977l1.746-1.747l-6.977-6.977L25.975,27.63z"/>
	</g>
	<g>
		<defs>
			
				<rect id="SVGID_5_" x="6.776" y="-2.779" transform="matrix(-0.707 -0.7072 0.7072 -0.707 31.8297 44.0739)" width="36.537" height="36.445"/>
		</defs>
		<clipPath id="SVGID_6_">
			<use xlink:href="#SVGID_5_"  overflow="visible"/>
		</clipPath>
		
			<rect x="23.03" y="24.36" transform="matrix(-0.707 -0.7072 0.7072 -0.707 25.0065 60.3798)" clip-path="url(#SVGID_6_)" fill="#FFFFFF" width="3.962" height="1.3"/>
	</g>
	<g>
		<defs>
			<rect id="SVGID_7_" x="0" y="0" width="36.537" height="36.445"/>
		</defs>
		<clipPath id="SVGID_8_">
			<use xlink:href="#SVGID_7_"  overflow="visible"/>
		</clipPath>
		<path clip-path="url(#SVGID_8_)" fill="#FFFFFF" d="M16.547,26.273l-1.126-0.65l0.872-1.509l-1.823-1.053l0.099-0.463
			c0.08-0.37,0.121-0.743,0.121-1.108s-0.041-0.738-0.121-1.109l-0.099-0.462l1.823-1.053l-1.142-1.977l-1.829,1.055l-0.351-0.318
			c-0.562-0.512-1.206-0.885-1.913-1.111l-0.451-0.145v-2.105H8.323v2.105l-0.452,0.145c-0.707,0.226-1.351,0.599-1.913,1.11
			l-0.351,0.319l-1.82-1.05l-0.539,0.964l-1.135-0.633l1.182-2.117l2.156,1.245c0.483-0.38,1.009-0.686,1.572-0.913v-2.475h4.883
			v2.475c0.563,0.228,1.089,0.533,1.573,0.913l2.148-1.24l2.441,4.229l-2.144,1.238c0.043,0.304,0.065,0.609,0.065,0.91
			s-0.021,0.605-0.065,0.91l2.144,1.238L16.547,26.273z"/>
	</g>
	<g>
		<defs>
			<rect id="SVGID_9_" x="0" y="0" width="36.537" height="36.445"/>
		</defs>
		<clipPath id="SVGID_10_">
			<use xlink:href="#SVGID_9_"  overflow="visible"/>
		</clipPath>
		<path clip-path="url(#SVGID_10_)" fill="#FFFFFF" d="M20.129,15.175l-0.642-2.395c-0.61-0.073-1.199-0.23-1.758-0.466l-1.75,1.749
			l-3.453-3.452l1.75-1.75c-0.237-0.56-0.393-1.148-0.466-1.758l-2.395-0.642l1.263-4.717l2.831,0.759l-0.336,1.255l-1.576-0.422
			l-0.591,2.206l2.04,0.547l0.023,0.473c0.036,0.759,0.226,1.478,0.567,2.138l0.217,0.422l-1.489,1.489l1.615,1.614l1.489-1.488
			l0.421,0.217c0.66,0.34,1.38,0.531,2.139,0.567l0.474,0.023l0.546,2.039l2.206-0.591l-0.545-2.033l0.398-0.257
			c0.318-0.205,0.61-0.44,0.869-0.698c0.257-0.259,0.492-0.551,0.697-0.869l1.093,0.705c-0.255,0.396-0.548,0.76-0.871,1.083
			c-0.213,0.213-0.444,0.413-0.69,0.597l0.64,2.391L20.129,15.175z"/>
	</g>
	<g>
		<defs>
			<rect id="SVGID_11_" x="0" y="0" width="36.537" height="36.445"/>
		</defs>
		<clipPath id="SVGID_12_">
			<use xlink:href="#SVGID_11_"  overflow="visible"/>
		</clipPath>
		<path clip-path="url(#SVGID_12_)" fill="#FFFFFF" d="M9.465,24.886v-1.3c1.156,0,2.096-0.94,2.096-2.096s-0.94-2.096-2.096-2.096
			s-2.096,0.94-2.096,2.096h-1.3c0-1.873,1.523-3.396,3.396-3.396s3.396,1.523,3.396,3.396
			C12.861,23.363,11.338,24.886,9.465,24.886"/>
	</g>
	<g>
		<defs>
			<rect id="SVGID_13_" x="0" y="0" width="36.537" height="36.445"/>
		</defs>
		<clipPath id="SVGID_14_">
			<use xlink:href="#SVGID_13_"  overflow="visible"/>
		</clipPath>
		<path clip-path="url(#SVGID_14_)" fill="#FFFFFF" d="M20.281,9.703c-0.87,0-1.739-0.331-2.401-0.993
			c-1.325-1.324-1.325-3.479,0-4.802l0.919,0.919c-0.817,0.817-0.817,2.147,0,2.964c0.817,0.816,2.147,0.816,2.964,0l0.919,0.919
			C22.02,9.372,21.151,9.703,20.281,9.703"/>
	</g>
</g>
</svg>
