<?xml version="1.0" encoding="utf-8"?>
<!-- Generator: Adobe Illustrator 17.0.0, SVG Export Plug-In . SVG Version: 6.00 Build 0)  -->
<!DOCTYPE svg PUBLIC "-//W3C//DTD SVG 1.1//EN" "http://www.w3.org/Graphics/SVG/1.1/DTD/svg11.dtd">
<svg version="1.1" id="Layer_1" xmlns="http://www.w3.org/2000/svg" xmlns:xlink="http://www.w3.org/1999/xlink" x="0px" y="0px"
	 width="544.121px" height="260.941px" viewBox="0 0 544.121 260.941" enable-background="new 0 0 544.121 260.941"
	 xml:space="preserve">
<polygon fill="#0070AF" points="485.243,8.512 534.268,8.512 538.775,8.512 538.775,13.02 538.775,62.04 538.775,72.923 
	531.082,65.227 482.055,16.207 474.364,8.512 "/>
<path fill="#BCBEC0" d="M409.688,81.532h53.03h4.518v4.52v53.024v4.517h-4.518h-53.03h-4.517v-4.517V86.052v-4.52H409.688z
	 M458.193,90.57h-43.984v43.986h43.984V90.57z"/>
<path fill="#BCBEC0" d="M409.576,9.041h53.022h4.518v4.521v53.024v4.52h-4.518h-53.022h-4.519v-4.52V13.562V9.041H409.576z
	 M458.079,18.082h-43.985v43.984h43.985V18.082z"/>
<path fill="#BCBEC0" d="M481.289,81.287h53.023h4.522v4.519v53.023v4.524h-4.522h-53.023h-4.52v-4.524V85.806v-4.519H481.289z
	 M529.793,90.326h-43.986v43.985h43.986V90.326z"/>
<path d="M310.064,242.732l-2.274-0.059l-2.207-0.102l-2.142-0.132l-2.07-0.182l-2.005-0.216l-1.938-0.251l-1.868-0.299l-1.799-0.337
	l-1.733-0.379l-1.669-0.415l-1.594-0.46l-1.531-0.497l-1.463-0.547l-1.399-0.587l-1.331-0.632l-1.267-0.679l-1.189-0.724
	l-1.121-0.773l-1.039-0.823l-0.971-0.871l-0.888-0.916l-0.808-0.974l-0.728-1.013l-0.644-1.061l-0.557-1.107l-0.474-1.139
	l-0.385-1.188l-0.298-1.218l-0.213-1.247l-0.125-1.284l-0.042-1.319l0.039-1.058l0.115-1.043l0.191-1.026l0.27-1.007l0.351-0.991
	l0.424-0.954l0.498-0.93l0.571-0.907l0.644-0.87l0.709-0.84l0.773-0.803l0.841-0.781l0.913-0.748l0.965-0.722l1.033-0.69
	l1.103-0.672l1.158-0.63l1.194-0.587l1.23-0.546l1.261-0.505l1.301-0.469l1.344-0.419l1.367-0.384l1.411-0.341l1.445-0.301
	l1.484-0.257l1.517-0.221l1.549-0.183l1.59-0.136l1.62-0.104l1.656-0.059l1.685-0.018l1.482,0.007l1.446,0.011l1.422,0.024
	l1.404,0.032l1.382,0.041l1.355,0.053l1.336,0.059l1.309,0.067l1.291,0.079l1.265,0.091l1.247,0.094l1.22,0.108l1.205,0.115
	l1.175,0.126l1.153,0.139l1.136,0.143l1.114,0.155l1.087,0.162l1.067,0.176l1.044,0.178l1.028,0.199l0.992,0.203l0.981,0.212
	l0.96,0.22l0.935,0.234l0.912,0.247l0.887,0.252l0.871,0.264l0.852,0.268l0.821,0.29l0.806,0.293l0.792,0.305l1.487,0.637
	l1.417,0.678l1.331,0.721l1.242,0.772l1.159,0.818l1.068,0.869l0.984,0.919l0.882,0.965l0.792,1.021l0.689,1.075l0.589,1.114
	l0.485,1.163l0.373,1.202l0.269,1.241l0.164,1.274l0.047,1.301l-0.047,1.188l-0.14,1.171l-0.233,1.145l-0.336,1.109l-0.426,1.081
	l-0.516,1.051l-0.613,1.005l-0.702,0.969l-0.78,0.924l-0.871,0.88l-0.953,0.847l-1.026,0.804l-1.11,0.762l-1.18,0.726l-1.268,0.685
	l-1.33,0.647l-1.399,0.623l-1.464,0.583l-1.524,0.534l-1.584,0.498l-1.639,0.449l-1.699,0.415l-1.756,0.371l-1.818,0.33
	l-1.872,0.295l-1.938,0.252l-1.998,0.208l-2.053,0.176l-2.112,0.131l-2.173,0.098l-2.23,0.059l-2.3,0.018L310.064,242.732z
	 M311.06,139.105l-1.602-0.078l-1.567-0.133l-1.521-0.185l-1.484-0.24l-1.445-0.288l-1.404-0.349l-1.368-0.407l-1.32-0.457
	l-1.285-0.515l-1.235-0.571l-1.202-0.628l-1.145-0.685l-1.109-0.743l-1.063-0.799l-1.019-0.856l-0.954-0.906l-0.894-0.952
	l-0.836-0.995l-0.772-1.044l-0.715-1.084l-0.647-1.125l-0.588-1.167l-0.529-1.209l-0.462-1.245l-0.395-1.285l-0.336-1.321
	l-0.276-1.36l-0.217-1.394l-0.149-1.429l-0.09-1.464l-0.03-1.502l0.03-1.434l0.095-1.413l0.162-1.38l0.223-1.357l0.292-1.324
	l0.349-1.298l0.421-1.265l0.485-1.242l0.553-1.205l0.611-1.17l0.685-1.138l0.743-1.108l0.811-1.07l0.87-1.037l0.93-0.999
	l0.994-0.966l1.039-0.917l1.08-0.862l1.115-0.803l1.16-0.744l1.2-0.681l1.236-0.623l1.266-0.562l1.306-0.504l1.346-0.439
	l1.374-0.383l1.41-0.32l1.433-0.26l1.477-0.204l1.504-0.146l1.532-0.085l1.566-0.028l1.59,0.028l1.553,0.085l1.52,0.146l1.493,0.2
	l1.458,0.264l1.421,0.32l1.398,0.381l1.357,0.438l1.332,0.5l1.296,0.563l1.254,0.62l1.224,0.678l1.189,0.744l1.145,0.798
	l1.115,0.859l1.062,0.913l1.033,0.961l0.973,0.999l0.899,1.038l0.838,1.067l0.775,1.108l0.71,1.141l0.636,1.173l0.574,1.206
	l0.504,1.239l0.439,1.272l0.365,1.301l0.301,1.328l0.234,1.359l0.162,1.387l0.102,1.413l0.03,1.436l-0.03,1.497l-0.097,1.458
	l-0.155,1.428l-0.222,1.389l-0.288,1.354l-0.348,1.317l-0.418,1.279l-0.481,1.241l-0.547,1.205l-0.613,1.163l-0.677,1.124
	l-0.743,1.078l-0.799,1.036l-0.87,0.993l-0.93,0.949l-0.99,0.897l-1.044,0.86l-1.093,0.802l-1.14,0.752l-1.182,0.689l-1.223,0.636
	l-1.266,0.576l-1.302,0.523l-1.351,0.467l-1.385,0.41l-1.429,0.354l-1.464,0.293l-1.499,0.246l-1.543,0.185l-1.578,0.132
	l-1.618,0.085l-1.657,0.024L311.06,139.105z M324.932,67.528l-1.991,0.013l-1.963,0.034l-1.919,0.06l-1.898,0.083l-1.859,0.106
	l-1.822,0.127l-1.8,0.154l-1.765,0.177l-1.73,0.199l-1.702,0.224l-1.668,0.244l-1.638,0.27l-1.602,0.291l-1.572,0.316l-1.536,0.337
	l-1.506,0.361l-1.477,0.385l-1.439,0.409l-1.41,0.428l-1.38,0.452l-1.346,0.475l-1.313,0.497l-1.284,0.52l-1.247,0.54l-1.214,0.566
	l-1.187,0.587l-1.152,0.607l-1.127,0.633l-1.087,0.648l-1.062,0.676l-1.026,0.695l-1.001,0.719l-0.965,0.741l-0.94,0.761
	l-0.906,0.781l-0.873,0.801l-0.841,0.825l-0.813,0.845l-0.778,0.864l-0.748,0.884l-0.715,0.905l-0.69,0.933l-0.654,0.949
	l-0.627,0.97l-0.594,0.994l-0.565,1.015l-0.536,1.038l-0.507,1.059l-0.47,1.081l-0.444,1.108l-0.412,1.129l-0.386,1.148
	l-0.353,1.177l-0.322,1.2l-0.294,1.223l-0.262,1.241l-0.231,1.271l-0.203,1.296l-0.17,1.314l-0.138,1.34l-0.109,1.365l-0.078,1.389
	l-0.047,1.414l-0.018,1.429l0.032,1.859l0.087,1.814l0.145,1.773l0.205,1.734l0.26,1.689l0.317,1.648l0.377,1.611l0.431,1.566
	l0.491,1.528l0.546,1.488l0.605,1.448l0.659,1.407l0.718,1.375l0.775,1.331l0.834,1.296l0.895,1.26l0.941,1.232l0.992,1.181
	l1.042,1.133l1.094,1.086l1.155,1.051l1.203,1.002l1.255,0.959l1.314,0.917l1.367,0.877l1.421,0.834l1.484,0.787l1.53,0.75
	l1.589,0.701l1.651,0.662l1.698,0.621l6.856,2.238l-6.034,2.54l-1.075,0.469l-1.026,0.467l-0.989,0.468l-0.948,0.468l-0.907,0.475
	l-0.869,0.473l-0.823,0.473l-0.786,0.474l-0.737,0.481l-0.702,0.474l-0.66,0.474l-0.62,0.468l-0.574,0.473l-0.534,0.469
	l-0.493,0.463l-0.912,0.94l-0.752,0.932l-0.627,0.941l-0.5,0.955l-0.388,0.97l-0.272,0.997l-0.166,1.015l-0.056,1.056l0.047,1.013
	l0.139,0.985l0.227,0.953l0.319,0.924l0.414,0.908l0.51,0.879l0.608,0.878l0.737,0.88l0.389,0.435l0.427,0.424l0.456,0.432
	l0.492,0.431l0.521,0.427l0.558,0.433l0.594,0.432l0.631,0.426l0.659,0.431l0.697,0.426l0.732,0.427l0.763,0.426l0.792,0.418
	l0.826,0.42l0.865,0.422l6.438,2.988l-8.249,1.631l-2.167,0.479l-2.094,0.523l-2.027,0.564l-1.946,0.607l-1.879,0.64l-1.808,0.687
	l-1.735,0.725l-1.662,0.768l-1.59,0.803l-1.52,0.841l-1.447,0.881l-1.373,0.924l-1.305,0.954l-1.236,0.995l-1.166,1.033
	l-1.091,1.075l-1.022,1.099l-0.946,1.131l-0.873,1.171l-0.803,1.201l-0.735,1.231l-0.662,1.272l-0.594,1.299l-0.523,1.339
	l-0.454,1.381l-0.386,1.414l-0.317,1.453l-0.247,1.499l-0.175,1.538l-0.107,1.577l-0.037,1.614l0.064,2.275l0.181,2.185l0.306,2.117
	l0.421,2.04l0.543,1.967l0.662,1.898l0.782,1.822l0.895,1.76l1.021,1.69l1.14,1.628l1.26,1.558l1.386,1.501l1.509,1.434l1.633,1.374
	l1.767,1.315l1.896,1.252l0.983,0.59l1.029,0.575l1.055,0.564l1.082,0.54l1.117,0.521l1.145,0.503l1.174,0.494l1.204,0.468
	l1.234,0.45l1.261,0.433l1.296,0.413l1.319,0.396l1.351,0.378l1.38,0.354l1.411,0.342l1.44,0.318l1.469,0.299l1.501,0.283
	l1.525,0.264l1.56,0.239l1.588,0.229l1.615,0.204l1.65,0.185l1.674,0.163l1.71,0.15l1.734,0.126l1.764,0.108l1.793,0.089
	l1.824,0.067l1.854,0.048l1.878,0.029l1.909,0.012l1.956-0.012l1.92-0.029l1.896-0.048l1.858-0.071l1.838-0.091l1.8-0.107
	l1.77-0.133l1.739-0.156l1.717-0.168l1.68-0.192l1.65-0.216l1.626-0.228l1.59-0.252l1.561-0.275l1.53-0.289l1.493-0.313l1.474-0.329
	l1.443-0.354l1.403-0.366l1.379-0.397l1.351-0.407l1.313-0.426l1.291-0.451l1.254-0.474l1.229-0.484l1.202-0.505l1.163-0.528
	l1.134-0.546l1.109-0.565l1.074-0.58l1.043-0.608l1.004-0.613l1.945-1.295l1.793-1.35l1.663-1.414l1.54-1.489l1.411-1.553
	l1.283-1.615l1.164-1.686l1.04-1.758l0.918-1.823l0.797-1.896l0.673-1.975l0.551-2.045l0.437-2.133l0.308-2.201l0.185-2.285
	l0.06-2.377l-0.028-1.696l-0.115-1.657l-0.175-1.62l-0.253-1.578l-0.322-1.535l-0.396-1.49l-0.461-1.452l-0.543-1.415l-0.605-1.373
	l-0.678-1.339l-0.75-1.295l-0.821-1.268l-0.901-1.23l-0.965-1.194l-1.044-1.157l-1.125-1.123l-1.194-1.086l-1.264-1.049
	l-1.338-1.015l-1.409-0.978l-1.482-0.935l-1.562-0.9l-1.625-0.86l-1.704-0.826l-1.783-0.781l-1.847-0.751l-1.931-0.701l-1.998-0.672
	l-2.077-0.629l-2.156-0.589l-2.224-0.55l-2.304-0.513l-0.527-0.101l-0.572-0.114l-0.592-0.118l-0.62-0.122l-0.641-0.127
	l-0.672-0.131l-0.69-0.133l-0.714-0.135l-0.744-0.145l-0.769-0.151l-0.79-0.15l-0.818-0.164l-0.839-0.16l-0.871-0.168l-0.887-0.173
	l-0.928-0.18l-3.693-0.756l-3.461-0.773l-3.235-0.788l-3-0.799l-2.771-0.822l-2.543-0.834l-2.324-0.851l-2.094-0.876l-1.877-0.895
	l-1.668-0.936l-1.448-0.972l-1.247-1.032l-1.025-1.115l-0.799-1.224l-0.515-1.337l-0.179-1.386l0.117-1.327l0.349-1.242l0.559-1.164
	l0.756-1.08l0.93-0.985l1.079-0.9l1.229-0.826l1.382-0.768l1.523-0.714l1.675-0.667l1.83-0.618l1.98-0.581l2.136-0.542l2.293-0.51
	l2.447-0.468l2.591-0.431l1.531-0.246l1.44-0.233l1.357-0.223l1.276-0.216l1.195-0.205l1.11-0.192l1.026-0.191l0.954-0.18
	l2.044-0.395l1.963-0.463l1.903-0.522l1.848-0.588l1.8-0.648l1.739-0.714l1.686-0.781l1.639-0.846l1.577-0.904l1.531-0.967
	l1.471-1.031l1.422-1.099l1.373-1.165l1.314-1.223l1.266-1.291l1.217-1.356l1.165-1.41l1.085-1.438l1.008-1.478l0.931-1.505
	l0.858-1.542l0.781-1.581l0.707-1.615l0.636-1.654l0.557-1.689l0.487-1.729L362.51,123l0.336-1.808l0.259-1.843l0.191-1.886
	l0.11-1.929l0.041-1.978l-0.012-0.936l-0.029-0.934l-0.048-0.922l-0.066-0.911l-0.091-0.901l-0.102-0.888l-0.126-0.874l-0.146-0.866
	l-0.16-0.855l-0.181-0.838l-0.202-0.831l-0.217-0.819l-0.233-0.804l-0.26-0.791l-0.268-0.779l-0.295-0.767l-0.306-0.746l-0.33-0.75
	l-0.354-0.746l-0.378-0.744l-0.397-0.741l-0.419-0.738l-0.438-0.735l-0.46-0.733l-0.488-0.728l-0.504-0.726l-0.528-0.719
	l-0.553-0.718l-0.57-0.713l-0.594-0.712l-0.612-0.704l-3.665-4.04h24.671V67.528H324.932z"/>
<path d="M176.551,178.759l-2.492-0.142l-2.43-0.253l-2.365-0.343l-2.3-0.452l-2.24-0.551l-2.171-0.648l-2.108-0.755l-2.039-0.858
	l-1.972-0.954l-1.904-1.062l-1.836-1.164l-1.762-1.265l-1.695-1.369l-1.62-1.466l-1.538-1.559l-0.755-0.827l-0.719-0.84
	l-0.694-0.853l-0.674-0.874l-0.649-0.889l-0.625-0.918l-0.602-0.93l-0.579-0.947l-0.554-0.967l-0.53-0.983l-0.506-1.003l-0.482-1.02
	l-0.459-1.044l-0.433-1.056l-0.413-1.075l-0.387-1.091l-0.363-1.11l-0.339-1.122l-0.313-1.145l-0.293-1.164l-0.268-1.178
	l-0.245-1.201l-0.22-1.209l-0.2-1.231l-0.173-1.248l-0.149-1.26l-0.128-1.283l-0.105-1.296l-0.079-1.323l-0.059-1.33l-0.034-1.347
	l-0.014-1.368l0.014-1.365l0.034-1.349l0.059-1.333l0.079-1.316l0.105-1.296l0.128-1.282l0.149-1.263l0.173-1.25l0.2-1.229
	l0.22-1.212l0.245-1.194l0.268-1.18l0.293-1.16l0.313-1.143l0.339-1.125l0.363-1.11l0.389-1.094l0.411-1.07l0.433-1.054l0.459-1.04
	l0.483-1.021l0.505-1l0.53-0.981l0.555-0.969l0.58-0.944l0.602-0.927l0.623-0.906l0.651-0.896l0.675-0.868l0.696-0.853l0.719-0.83
	l0.752-0.827l1.54-1.55l1.621-1.458l1.694-1.357l1.762-1.262l1.836-1.157l1.903-1.06l1.971-0.952l2.038-0.855l2.108-0.751
	l2.172-0.65l2.238-0.548l2.299-0.448l2.366-0.347l2.43-0.248l2.492-0.148l2.542-0.05l0.997,0.008l0.984,0.028l0.972,0.043
	L183.014,83l0.962,0.081l0.951,0.098l0.946,0.114l0.94,0.134l0.932,0.151l0.922,0.169l0.916,0.188l0.91,0.206l0.898,0.223
	l0.891,0.24l0.882,0.26l0.876,0.277l0.88,0.307l0.871,0.321l0.866,0.339l0.865,0.356l0.86,0.379l0.858,0.394l0.856,0.41l0.849,0.429
	l0.854,0.45l0.848,0.469l0.842,0.487l0.843,0.504l0.839,0.528l0.837,0.544l0.831,0.564l1.659,1.165v75.928l-1.633,1.186
	l-0.833,0.583l-0.84,0.565l-0.84,0.54l-0.84,0.523l-0.848,0.497l-0.849,0.48l-0.853,0.462l-0.851,0.437l-0.86,0.421l-0.86,0.402
	l-0.863,0.386l-0.864,0.359l-0.87,0.341l-0.874,0.324l-0.88,0.307l-0.875,0.275l-0.881,0.265l-0.893,0.237l-0.902,0.225
	l-0.906,0.203l-0.916,0.192l-0.925,0.168l-0.929,0.149l-0.938,0.134l-0.946,0.114l-0.954,0.1l-0.961,0.079l-0.968,0.065
	l-0.976,0.044l-0.981,0.025l-0.998,0.012L176.551,178.759z M208.499,0v76.703l-4.034-2.789l-0.907-0.605l-0.912-0.581l-0.918-0.562
	l-0.928-0.54l-0.93-0.522l-0.939-0.501l-0.947-0.48l-0.949-0.457l-0.958-0.436l-0.966-0.416l-0.972-0.396l-0.979-0.373l-0.985-0.35
	l-0.993-0.33l-1.002-0.309l-1.009-0.287l-1.029-0.269l-1.038-0.253l-1.055-0.233l-1.062-0.214l-1.079-0.198l-1.092-0.177
	l-1.106-0.161l-1.114-0.137l-1.132-0.124l-1.141-0.102l-1.158-0.086l-1.169-0.065l-1.182-0.049l-1.195-0.027l-1.208-0.01
	l-1.727,0.02l-1.702,0.053l-1.683,0.091l-1.662,0.126l-1.639,0.165l-1.618,0.198l-1.595,0.236l-1.576,0.272l-1.555,0.306
	l-1.532,0.343l-1.512,0.381l-1.493,0.413l-1.467,0.452l-1.455,0.485l-1.428,0.521l-1.41,0.556l-1.386,0.596l-1.37,0.628
	l-1.348,0.664l-1.329,0.699l-1.308,0.739l-1.292,0.773l-1.271,0.809l-1.251,0.843l-1.23,0.884l-1.212,0.917l-1.194,0.954
	l-1.177,0.989l-1.154,1.027l-1.137,1.063l-1.118,1.1l-1.102,1.137l-1.072,1.164l-1.038,1.187l-1.003,1.203l-0.971,1.223
	l-0.934,1.245l-0.902,1.27l-0.867,1.287l-0.834,1.31l-0.797,1.331l-0.766,1.352l-0.732,1.375l-0.698,1.396l-0.664,1.42l-0.632,1.437
	l-0.596,1.463l-0.564,1.483l-0.528,1.504l-0.497,1.527l-0.46,1.552l-0.428,1.572l-0.393,1.594l-0.361,1.616l-0.324,1.64
	l-0.293,1.661l-0.256,1.685l-0.223,1.708l-0.191,1.731l-0.154,1.75l-0.119,1.777l-0.087,1.8l-0.054,1.821l-0.018,1.84l0.018,1.849
	l0.054,1.823l0.087,1.807l0.119,1.775l0.154,1.758l0.191,1.734l0.223,1.71l0.256,1.686l0.293,1.669l0.324,1.638l0.361,1.62
	l0.393,1.595l0.428,1.58l0.46,1.545l0.497,1.532l0.528,1.506l0.564,1.482l0.596,1.464l0.632,1.44l0.664,1.417l0.698,1.397
	l0.732,1.375l0.766,1.354l0.797,1.328l0.835,1.314l0.866,1.29l0.902,1.266l0.934,1.247l0.971,1.223l1.003,1.202l1.038,1.18
	l1.072,1.165l1.102,1.14l1.118,1.104l1.137,1.063l1.154,1.026l1.177,0.991l1.194,0.953l1.21,0.918l1.232,0.883l1.251,0.844
	l1.271,0.81l1.292,0.768l1.306,0.738l1.331,0.702l1.348,0.666l1.369,0.624l1.387,0.595l1.412,0.558l1.429,0.52l1.452,0.488
	l1.467,0.449l1.493,0.422l1.51,0.375l1.533,0.337l1.555,0.312l1.577,0.27l1.595,0.234l1.618,0.198l1.639,0.162l1.662,0.131
	l1.681,0.09l1.704,0.05l1.727,0.024l1.244-0.013l1.227-0.023l1.211-0.05l1.196-0.065l1.181-0.083l1.159-0.105l1.146-0.118
	l1.13-0.144l1.119-0.156l1.097-0.173l1.084-0.193l1.068-0.21l1.053-0.228l1.033-0.247l1.022-0.264l1.006-0.28l0.998-0.294
	l0.984-0.319l0.978-0.341l0.975-0.355l0.962-0.378l0.956-0.396l0.947-0.414l0.943-0.438l0.935-0.45l0.925-0.473l0.918-0.5
	l0.913-0.508l0.903-0.529l0.898-0.553l0.89-0.568l3.987-2.664v8.957h22.171V0H208.499z"/>
<polygon points="42.219,64.674 40.986,64.701 39.775,64.75 38.579,64.81 37.402,64.896 36.24,64.994 35.099,65.113 33.975,65.248 
	32.87,65.405 31.782,65.577 30.712,65.77 29.658,65.978 28.626,66.204 27.609,66.449 26.61,66.711 25.629,66.991 24.669,67.289 
	23.724,67.604 22.797,67.938 21.887,68.288 20.995,68.656 20.121,69.042 19.263,69.447 18.423,69.866 17.605,70.307 16.797,70.763 
	16.009,71.237 15.241,71.725 14.486,72.237 13.746,72.762 13.026,73.309 12.332,73.86 10.977,75.033 9.72,76.248 8.555,77.511 
	7.476,78.818 6.487,80.173 5.584,81.577 4.767,83.032 4.036,84.536 3.39,86.092 2.828,87.701 2.352,89.365 1.96,91.085 1.658,92.86 
	1.438,94.692 1.307,96.582 1.261,98.53 1.288,100.025 1.364,101.491 1.491,102.923 1.67,104.322 1.897,105.692 2.176,107.027 
	2.501,108.329 2.877,109.602 3.304,110.841 3.779,112.051 4.306,113.231 4.88,114.381 5.504,115.502 6.179,116.593 6.904,117.657 
	7.677,118.691 8.519,119.717 9.455,120.754 10.478,121.798 11.596,122.857 12.805,123.926 14.109,125.005 15.501,126.092 
	16.988,127.19 18.569,128.293 20.24,129.409 22.003,130.529 23.857,131.658 25.807,132.792 27.845,133.94 29.976,135.084 
	32.233,136.261 33.131,136.766 34.09,137.28 35.149,137.839 36.3,138.439 37.548,139.075 38.888,139.752 40.316,140.474 
	41.84,141.234 44.468,142.577 46.939,143.905 49.245,145.226 51.389,146.521 53.372,147.805 55.192,149.077 56.85,150.342 
	58.35,151.598 59.692,152.851 60.873,154.105 61.897,155.364 62.754,156.637 63.445,157.927 63.955,159.247 64.271,160.578 
	64.38,161.905 64.273,163.758 63.956,165.511 63.423,167.185 62.674,168.757 61.718,170.22 60.558,171.565 59.216,172.787 
	57.722,173.862 56.892,174.384 56.036,174.866 55.15,175.304 54.231,175.705 53.284,176.076 52.297,176.414 51.285,176.719 
	50.243,176.989 49.171,177.223 48.065,177.427 46.931,177.602 45.763,177.74 44.57,177.848 43.343,177.925 42.085,177.973 
	40.794,177.985 39.6,177.973 38.386,177.919 37.161,177.842 35.924,177.721 34.673,177.569 33.405,177.392 32.129,177.175 
	30.836,176.922 29.535,176.642 28.22,176.324 26.89,175.974 25.548,175.592 24.195,175.177 22.827,174.728 21.449,174.246 
	20.059,173.737 18.656,173.191 17.243,172.615 15.828,172.015 14.405,171.387 12.978,170.725 11.544,170.041 10.109,169.329 
	8.664,168.578 7.218,167.809 5.764,167.004 4.303,166.178 2.838,165.32 1.368,164.432 0,163.584 0,186.739 0.281,186.889 
	1.606,187.568 2.934,188.221 4.264,188.852 5.598,189.462 6.936,190.044 8.274,190.609 9.617,191.144 10.964,191.664 
	12.314,192.157 13.666,192.631 15.022,193.075 16.379,193.502 17.743,193.902 19.107,194.281 20.475,194.643 21.844,194.977 
	23.221,195.29 24.604,195.59 26.002,195.86 27.406,196.111 28.823,196.339 30.247,196.548 31.682,196.735 33.129,196.904 
	34.584,197.041 36.048,197.167 37.521,197.264 39.007,197.342 40.5,197.397 42.002,197.431 43.516,197.444 44.815,197.431 
	46.095,197.401 47.362,197.354 48.609,197.28 49.842,197.196 51.054,197.09 52.25,196.957 53.429,196.814 54.594,196.645 
	55.74,196.458 56.868,196.256 57.979,196.027 59.075,195.787 60.152,195.522 61.211,195.242 62.255,194.935 63.287,194.617 
	64.296,194.276 65.291,193.914 66.265,193.536 67.228,193.142 68.171,192.721 69.098,192.289 70.008,191.826 70.906,191.354 
	71.781,190.861 72.646,190.352 73.491,189.816 74.322,189.266 75.135,188.695 75.934,188.106 76.706,187.501 78.22,186.242 
	79.614,184.939 80.91,183.589 82.104,182.192 83.203,180.745 84.202,179.245 85.107,177.696 85.913,176.1 86.629,174.451 
	87.247,172.748 87.773,170.988 88.201,169.171 88.538,167.306 88.779,165.372 88.924,163.394 88.969,161.341 88.946,159.864 
	88.871,158.425 88.752,157.015 88.582,155.647 88.365,154.309 88.097,153.013 87.786,151.746 87.425,150.517 87.02,149.324 
	86.567,148.165 86.064,147.037 85.517,145.939 84.923,144.877 84.281,143.846 83.593,142.843 82.859,141.882 82.054,140.936 
	81.129,139.956 80.081,138.95 78.912,137.903 77.622,136.837 76.211,135.74 74.68,134.617 73.026,133.47 71.26,132.298 
	69.367,131.102 67.356,129.884 65.227,128.64 62.979,127.373 60.613,126.086 58.127,124.776 55.55,123.454 53.13,122.342 
	49.76,120.639 46.615,118.97 43.679,117.326 40.954,115.705 38.44,114.107 36.131,112.529 34.029,110.973 32.135,109.43 
	30.447,107.9 28.961,106.379 27.684,104.858 26.61,103.334 25.754,101.795 25.118,100.238 24.725,98.659 24.591,97.101 
	24.677,95.528 24.929,94.054 25.355,92.655 25.956,91.339 26.732,90.125 27.667,89.019 28.75,88.027 29.958,87.158 30.654,86.747 
	31.341,86.381 32.059,86.041 32.801,85.73 33.572,85.444 34.367,85.187 35.186,84.954 36.034,84.743 36.911,84.562 37.808,84.406 
	38.733,84.274 39.684,84.165 40.665,84.081 41.667,84.024 42.7,83.986 43.758,83.975 44.927,83.988 46.103,84.027 47.288,84.092 
	48.477,84.182 49.679,84.299 50.885,84.443 52.099,84.61 53.324,84.803 54.556,85.023 55.794,85.268 57.039,85.539 58.291,85.833 
	59.552,86.156 60.82,86.501 62.096,86.873 63.378,87.269 64.666,87.696 65.966,88.145 67.283,88.624 68.614,89.128 69.962,89.663 
	71.324,90.224 72.701,90.81 74.096,91.424 75.508,92.066 76.932,92.735 78.375,93.434 79.829,94.155 81.302,94.907 82.788,95.684 
	82.858,95.72 82.858,74.618 82.669,74.515 81.463,73.871 80.254,73.248 79.043,72.653 77.83,72.077 76.613,71.525 75.395,70.996 
	74.171,70.487 72.949,70 71.722,69.539 70.493,69.097 69.261,68.678 68.03,68.28 66.794,67.905 65.556,67.553 64.317,67.221 
	63.067,66.913 61.808,66.624 60.54,66.354 59.269,66.105 57.989,65.876 56.703,65.665 55.414,65.476 54.116,65.306 52.811,65.156 
	51.498,65.025 50.179,64.915 48.853,64.824 47.518,64.755 46.175,64.706 44.825,64.674 43.467,64.664 "/>
<g>
	<defs>
		<rect id="SVGID_1_" width="544.121" height="260.941"/>
	</defs>
	<clipPath id="SVGID_2_">
		<use xlink:href="#SVGID_1_"  overflow="visible"/>
	</clipPath>
	<path clip-path="url(#SVGID_2_)" fill-rule="evenodd" clip-rule="evenodd" d="M424.575,186.284v-4.266
		c0-2.719-0.636-4.7-1.889-5.935c-1.26-1.224-3.289-1.841-6.073-1.841c-2.519,0-4.211,0.454-5.051,1.38
		c-0.852,0.911-1.279,3.018-1.279,6.299v4.464c0,3.264,0.427,5.358,1.279,6.27c0.84,0.925,2.532,1.379,5.051,1.379
		c2.784,0,4.813-0.617,6.073-1.841C423.939,190.957,424.575,188.99,424.575,186.284 M428.402,171.097v25.788
		c0,3.829-0.748,6.498-2.248,8.017c-1.494,1.511-4.14,2.261-7.908,2.261h-1.781c-3.398,0-5.876-0.616-7.447-1.861
		c-1.56-1.234-2.455-3.287-2.664-6.142h3.929c0.169,1.673,0.685,2.833,1.548,3.48c0.87,0.652,2.431,0.984,4.681,0.984h1.734
		c2.28,0,3.893-0.374,4.865-1.116c0.973-0.743,1.464-1.963,1.464-3.641v-5.402c-0.725,1.442-1.722,2.473-2.982,3.109
		c-1.254,0.629-2.968,0.955-5.128,0.955c-3.704,0-6.32-0.769-7.831-2.305c-1.517-1.536-2.28-4.199-2.28-7.981v-6.186
		c0-3.798,0.763-6.467,2.28-8.009c1.511-1.53,4.127-2.298,7.831-2.298c2.226,0,4.001,0.353,5.322,1.068
		c1.336,0.706,2.303,1.823,2.939,3.335v-4.056H428.402z M437.397,197.18v-26.083h3.732v3.571c0.547-1.357,1.392-2.346,2.545-2.977
		c1.159-0.629,2.687-0.941,4.602-0.941c2.837,0,4.83,0.683,5.963,2.057c1.155,1.368,1.723,3.793,1.723,7.279v0.203h-3.881v-0.773
		c0-2.077-0.332-3.482-0.984-4.2c-0.661-0.721-1.909-1.074-3.733-1.074c-2.142,0-3.695,0.612-4.649,1.818
		c-0.954,1.218-1.436,3.204-1.436,5.958v15.162H437.397z M479.837,186.385v-4.464c0-3.281-0.415-5.382-1.249-6.275
		c-0.827-0.906-2.586-1.351-5.251-1.351h-1.804c-2.653,0-4.38,0.445-5.202,1.332c-0.817,0.901-1.219,2.993-1.219,6.294v4.464
		c0,3.313,0.408,5.418,1.231,6.313c0.827,0.887,2.555,1.336,5.19,1.336h1.804c2.649,0,4.399-0.454,5.239-1.361
		C479.418,191.762,479.837,189.662,479.837,186.385 M471.58,197.529c-3.887,0-6.606-0.764-8.16-2.287
		c-1.542-1.514-2.32-4.182-2.32-7.999v-6.186c0-3.828,0.767-6.51,2.314-8.023c1.542-1.523,4.243-2.284,8.119-2.284h1.804
		c3.89,0,6.607,0.761,8.161,2.284c1.542,1.513,2.323,4.195,2.323,8.023v6.186c0,3.834-0.769,6.504-2.316,8.018
		c-1.537,1.511-4.243,2.268-8.118,2.268H471.58z M513.003,171.097v26.083h-3.712v-3.541c-0.606,1.314-1.609,2.299-3.013,2.935
		c-1.397,0.629-3.246,0.955-5.531,0.955c-3.401,0-5.785-0.697-7.152-2.072c-1.368-1.38-2.045-3.793-2.045-7.249v-17.111h3.826
		v16.302c0,2.706,0.409,4.487,1.218,5.351c0.798,0.854,2.376,1.284,4.716,1.284c2.702,0,4.676-0.617,5.922-1.857
		c1.243-1.238,1.867-3.206,1.867-5.893v-15.187H513.003z M525.875,186.284c0,2.706,0.63,4.673,1.89,5.909
		c1.254,1.224,3.282,1.841,6.066,1.841c2.525,0,4.193-0.454,5.028-1.361c0.839-0.911,1.247-3.011,1.247-6.288v-4.464
		c0-3.301-0.408-5.406-1.247-6.317c-0.835-0.908-2.503-1.362-5.028-1.362c-2.784,0-4.812,0.617-6.066,1.841
		c-1.26,1.235-1.89,3.216-1.89,5.935V186.284z M522.04,171.097h3.678v4.056c0.636-1.512,1.609-2.629,2.94-3.335
		c1.326-0.715,3.096-1.068,5.322-1.068c3.709,0,6.325,0.768,7.855,2.298c1.525,1.542,2.286,4.211,2.286,8.009v6.186
		c0,3.782-0.761,6.445-2.286,7.981c-1.53,1.536-4.146,2.305-7.855,2.305c-2.141,0-3.846-0.326-5.105-0.955
		c-1.253-0.636-2.255-1.667-3-3.109v13.698h-3.835V171.097z"/>
</g>
</svg>
