<?xml version="1.0" encoding="utf-8"?>
<!-- Generator: Adobe Illustrator 22.0.1, SVG Export Plug-In . SVG Version: 6.00 Build 0)  -->
<svg version="1.1" id="Layer_1" xmlns="http://www.w3.org/2000/svg" xmlns:xlink="http://www.w3.org/1999/xlink" x="0px" y="0px"
	 viewBox="0 0 64 64" style="enable-background:new 0 0 64 64;" xml:space="preserve">
<style type="text/css">
	.st0{fill:#338DBB;}
	.st1{fill:#FFFFFF;}
</style>
<g>
	<circle class="st0" cx="32" cy="32" r="32"/>
</g>
<g>
	<g>
		<path class="st1" d="M32,26.5L32,26.5c-2.03,0-3.68-1.65-3.68-3.68v-0.65c0-2.03,1.65-3.68,3.68-3.68c2.03,0,3.68,1.65,3.68,3.68
			v0.65C35.69,24.85,34.03,26.5,32,26.5z M32,19.48c-1.48,0-2.68,1.2-2.68,2.68v0.65c0,1.48,1.2,2.68,2.68,2.68
			c1.48,0,2.68-1.2,2.68-2.68v-0.65C34.69,20.68,33.48,19.48,32,19.48z"/>
	</g>
	<g>
		<path class="st1" d="M25.71,18.74L25.71,18.74c-2.03,0-3.69-1.65-3.69-3.68v-0.65c0-2.03,1.65-3.68,3.68-3.68
			c2.03,0,3.68,1.65,3.68,3.68v0.65c0,0.98-0.38,1.91-1.08,2.61C27.61,18.36,26.69,18.74,25.71,18.74z M25.71,11.73
			c-1.48,0-2.68,1.2-2.68,2.68v0.65c0,1.48,1.2,2.68,2.68,2.68l0,0c0,0,0,0,0,0c0.72,0,1.39-0.28,1.9-0.79
			c0.51-0.51,0.79-1.18,0.79-1.9v-0.65C28.39,12.93,27.18,11.73,25.71,11.73z"/>
	</g>
	<g>
		<path class="st1" d="M38.3,18.74C38.3,18.74,38.3,18.74,38.3,18.74c-2.03,0-3.69-1.65-3.69-3.68v-0.65c0-2.03,1.65-3.68,3.68-3.68
			c0.98,0,1.91,0.38,2.61,1.08c0.7,0.7,1.08,1.62,1.08,2.6v0.65c0,0.98-0.38,1.91-1.08,2.61C40.21,18.36,39.28,18.74,38.3,18.74z
			 M38.3,11.73c-1.48,0-2.68,1.2-2.68,2.68v0.65c0,1.48,1.2,2.68,2.68,2.68l0,0c0,0,0,0,0,0c0.72,0,1.39-0.28,1.9-0.79
			c0.51-0.51,0.79-1.18,0.79-1.9v-0.65c0-0.72-0.28-1.39-0.79-1.9C39.69,12,39.01,11.73,38.3,11.73z"/>
	</g>
	<g>
		<g>
			<rect x="28.01" y="32.77" class="st1" width="1" height="20.5"/>
		</g>
		<g>
			<rect x="34.99" y="32.77" class="st1" width="1" height="20.5"/>
		</g>
		<g>
			<rect x="31.5" y="40.36" class="st1" width="1" height="12.92"/>
		</g>
		<g>
			<path class="st1" d="M37.25,40.86h-1.75v-1h1.75c0.36,0,0.66-0.29,0.66-0.66l0-8.02c0-1.05-0.67-1.98-1.67-2.31
				c-2.73-0.91-5.74-0.91-8.47,0c-1,0.33-1.67,1.26-1.67,2.31l0,8.02c0,0.36,0.29,0.66,0.66,0.66h1.75v1h-1.75
				c-0.91,0-1.66-0.74-1.66-1.66l0-8.02c0-1.48,0.95-2.79,2.35-3.26c2.93-0.97,6.17-0.97,9.1,0c1.41,0.47,2.35,1.78,2.35,3.26
				l0,8.02C38.9,40.11,38.16,40.86,37.25,40.86z"/>
		</g>
	</g>
	<g>
		<path class="st1" d="M44.59,28.72c-2.03,0-3.68-1.65-3.68-3.68l0-0.65c0-2.03,1.65-3.68,3.68-3.68c2.03,0,3.68,1.65,3.68,3.68
			v0.65C48.28,27.07,46.62,28.72,44.59,28.72z M44.59,21.7c-1.48,0-2.68,1.2-2.68,2.68l0,0.65c0,1.48,1.2,2.68,2.68,2.68
			c1.48,0,2.68-1.2,2.68-2.68v-0.65C47.28,22.91,46.07,21.7,44.59,21.7z"/>
	</g>
	<g>
		<path class="st1" d="M19.41,28.72C19.41,28.72,19.41,28.72,19.41,28.72c-2.03,0-3.69-1.65-3.69-3.68v-0.65
			c0-2.03,1.65-3.68,3.68-3.68c0.98,0,1.91,0.38,2.61,1.08c0.7,0.7,1.08,1.62,1.08,2.6v0.65c0,0.98-0.38,1.91-1.08,2.61
			C21.32,28.33,20.39,28.72,19.41,28.72z M19.41,21.7c-1.48,0-2.68,1.2-2.68,2.68v0.65c0,1.48,1.2,2.68,2.68,2.68l0,0c0,0,0,0,0,0
			c0.72,0,1.39-0.28,1.9-0.79c0.51-0.51,0.79-1.18,0.79-1.9v-0.65c0-0.72-0.28-1.39-0.79-1.9C20.8,21.98,20.12,21.7,19.41,21.7z"/>
	</g>
	<g>
		<g>
			<rect x="47.58" y="35" class="st1" width="1" height="18.28"/>
		</g>
		<g>
			<path class="st1" d="M49.84,43.08l-1.75,0v-1l1.75,0c0.36,0,0.66-0.3,0.66-0.66V33.4c0-1.05-0.67-1.98-1.67-2.31
				c-2.73-0.91-5.74-0.91-8.47,0l-0.31-0.95c2.93-0.97,6.17-0.97,9.1,0c1.41,0.47,2.35,1.78,2.35,3.26v8.02
				C51.5,42.33,50.75,43.08,49.84,43.08z"/>
		</g>
		<g>
			<rect x="40.6" y="35" class="st1" width="1" height="18.28"/>
		</g>
		<g>
			<rect x="44.09" y="42.58" class="st1" width="1" height="10.7"/>
		</g>
	</g>
	<g>
		<g>
			<rect x="15.42" y="34.99" class="st1" width="1" height="18.28"/>
		</g>
		<g>
			<rect x="18.91" y="42.57" class="st1" width="1" height="10.7"/>
		</g>
		<g>
			<rect x="22.4" y="34.99" class="st1" width="1" height="18.28"/>
		</g>
		<g>
			<path class="st1" d="M15.92,43.07h-1.75c-0.91,0-1.66-0.74-1.66-1.66l0-8.02c0-1.48,0.95-2.79,2.35-3.26
				c2.94-0.97,6.17-0.97,9.1,0l-0.31,0.95c-2.73-0.91-5.74-0.91-8.47,0c-1,0.33-1.67,1.26-1.67,2.31l0,8.02
				c0,0.36,0.29,0.66,0.66,0.66h1.75V43.07z"/>
		</g>
	</g>
</g>
</svg>
