<?xml version="1.0" encoding="utf-8"?>
<!-- Generator: Adobe Illustrator 22.0.1, SVG Export Plug-In . SVG Version: 6.00 Build 0)  -->
<svg version="1.1" id="Layer_1" xmlns="http://www.w3.org/2000/svg" xmlns:xlink="http://www.w3.org/1999/xlink" x="0px" y="0px"
	 viewBox="0 0 64 64" style="enable-background:new 0 0 64 64;" xml:space="preserve">
<style type="text/css">
	.st0{fill:#338DBB;}
	.st1{fill:#FFFFFF;}
</style>
<g>
	<circle class="st0" cx="32" cy="32" r="32"/>
</g>
<g>
	<g>
		<polygon class="st1" points="51.23,38.98 24.9,38.98 24.9,30.5 25.9,30.5 25.9,37.98 50.23,37.98 50.23,18.83 25.9,18.83 
			25.9,24.09 24.9,24.09 24.9,17.83 51.23,17.83 		"/>
	</g>
	<g>
		<polygon class="st1" points="47.71,18.77 38.06,13.52 28.42,18.77 27.94,17.9 38.06,12.38 48.19,17.9 		"/>
	</g>
	<g>
		<path class="st1" d="M48.02,38.98h-5.61v-3.17h5.61V38.98z M43.41,37.98h3.61v-1.17h-3.61V37.98z"/>
	</g>
	<g>
		<rect x="37.56" y="12.95" class="st1" width="1" height="5.39"/>
	</g>
	<g>
		<path class="st1" d="M39.87,34.3c-2.45,0-4.44-1.99-4.44-4.43s1.99-4.43,4.44-4.43h0.5v3.93h3.93v0.5
			C44.3,32.31,42.31,34.3,39.87,34.3z M39.37,26.47c-1.66,0.24-2.94,1.67-2.94,3.4c0,1.89,1.54,3.43,3.44,3.43
			c1.72,0,3.16-1.28,3.4-2.93h-3.9V26.47z"/>
	</g>
	<g>
		<path class="st1" d="M46.48,28.19h-4.93v-4.94h0.5c2.45,0,4.43,1.99,4.43,4.44V28.19z M42.55,27.19h2.9
			c-0.22-1.49-1.4-2.68-2.9-2.9V27.19z"/>
	</g>
	<g>
		<path class="st1" d="M37.34,23.64v-1h1v1C37.34,23.64,38.34,23.64,37.34,23.64z M35.04,23.64v-1h1v1
			C35.04,23.64,36.04,23.64,35.04,23.64z M32.74,23.64v-1h1v1C32.74,23.64,33.74,23.64,32.74,23.64z M30.44,23.64v-1h1v1
			C30.44,23.64,31.44,23.64,30.44,23.64z"/>
	</g>
	<g>
		
			<rect x="27.56" y="44.44" transform="matrix(0.4511 -0.8925 0.8925 0.4511 -21.0047 55.7172)" class="st1" width="14.48" height="1"/>
	</g>
	<g>
		
			<rect x="40.83" y="37.7" transform="matrix(0.8922 -0.4517 0.4517 0.8922 -15.8396 23.5145)" class="st1" width="1" height="14.48"/>
	</g>
	<g>
		<rect x="37.56" y="38.48" class="st1" width="1" height="12.92"/>
	</g>
	<g>
		<g>
			<path class="st1" d="M19.68,24.62C19.68,24.62,19.68,24.62,19.68,24.62c-0.98,0-1.91-0.38-2.61-1.08c-0.7-0.7-1.08-1.62-1.08-2.6
				v-0.65c0-2.03,1.65-3.68,3.68-3.68c2.03,0,3.68,1.65,3.68,3.68v0.65c0,0.98-0.38,1.91-1.08,2.6
				C21.59,24.24,20.66,24.62,19.68,24.62z M19.68,17.6c-1.48,0-2.68,1.2-2.68,2.68v0.65c0,0.72,0.28,1.39,0.79,1.9
				c0.51,0.51,1.18,0.79,1.9,0.79l0,0c0,0,0,0,0,0c0.72,0,1.39-0.28,1.9-0.79c0.51-0.51,0.79-1.18,0.79-1.9v-0.65
				C22.36,18.81,21.16,17.6,19.68,17.6z"/>
		</g>
		<g>
			<rect x="15.69" y="30.89" class="st1" width="1" height="20.5"/>
		</g>
		<g>
			<rect x="19.18" y="38.48" class="st1" width="1" height="12.92"/>
		</g>
		<g>
			<path class="st1" d="M23.67,51.39h-1l0-23.18h9.2c0.53,0,0.96-0.43,0.96-0.96c0-0.53-0.43-0.96-0.96-0.96H19.68
				c-1.44,0-2.87,0.23-4.24,0.68c-1,0.33-1.67,1.26-1.67,2.31l0,8.02c0,0.36,0.3,0.66,0.66,0.66h1.75v1h-1.75
				c-0.91,0-1.66-0.75-1.66-1.66l0-8.02c0-1.48,0.95-2.79,2.35-3.26c1.47-0.49,3-0.73,4.55-0.73h12.19c1.08,0,1.96,0.88,1.96,1.96
				c0,1.08-0.88,1.96-1.96,1.96h-8.2L23.67,51.39z"/>
		</g>
	</g>
</g>
</svg>
